(module 1-pin (layer F.Cu) (tedit 5C6D326D)
  (fp_text reference REF** (at 0 2.54) (layer F.SilkS) hide
    (effects (font (size 1 1) (thickness 0.15)))
  )
  (fp_text value 1-pin (at 0 -2) (layer F.Fab) hide
    (effects (font (size 1 1) (thickness 0.15)))
  )
  (fp_arc (start 0 0) (end 0 -1.27) (angle -180) (layer F.SilkS) (width 0.2))
  (fp_arc (start 0 0) (end 0 1.27) (angle -180) (layer F.SilkS) (width 0.2))
  (pad 1 thru_hole circle (at 0 0) (size 1.6 1.6) (drill 0.7) (layers *.Cu *.Mask))
)
