(module 4-pin (layer F.Cu) (tedit 5C6D2FB8)
  (fp_text reference REF** (at 3.81 2.5) (layer F.SilkS) hide
    (effects (font (size 1 1) (thickness 0.15)))
  )
  (fp_text value 4-pin (at 3.81 -2) (layer F.Fab) hide
    (effects (font (size 1 1) (thickness 0.15)))
  )
  (fp_arc (start 0 0) (end 0 -1.27) (angle -180) (layer F.SilkS) (width 0.2))
  (fp_arc (start 7.62 0) (end 7.62 1.27) (angle -180) (layer F.SilkS) (width 0.2))
  (fp_line (start 0 -1.27) (end 7.62 -1.27) (layer F.SilkS) (width 0.2))
  (fp_line (start 0 1.27) (end 7.62 1.27) (layer F.SilkS) (width 0.2))
  (pad 1 thru_hole circle (at 0 0) (size 1.6 1.6) (drill 0.7) (layers *.Cu *.Mask))
  (pad 2 thru_hole circle (at 2.54 0) (size 1.6 1.6) (drill 0.7) (layers *.Cu *.Mask))
  (pad 3 thru_hole circle (at 5.08 0) (size 1.6 1.6) (drill 0.7) (layers *.Cu *.Mask))
  (pad 4 thru_hole circle (at 7.62 0) (size 1.6 1.6) (drill 0.7) (layers *.Cu *.Mask))
)
