(module SMT_0603-1210 (layer F.Cu) (tedit 5C6D1016)
  (fp_text reference REF** (at 0 2.2) (layer F.SilkS)
    (effects (font (size 1 1) (thickness 0.15)))
  )
  (fp_text value SMT_0603-1210 (at 0 -2) (layer F.Fab)
    (effects (font (size 1 1) (thickness 0.15)))
  )
  (pad 1 smd roundrect (at -1.3 0) (size 1.9 2.6) (layers F.Cu F.Paste F.Mask) (roundrect_rratio 0.25))
  (pad 2 smd roundrect (at 1.3 0) (size 1.9 2.6) (layers F.Cu F.Paste F.Mask) (roundrect_rratio 0.25))
)
